%YAML 1.1
%TAG !u! tag:unity3d.com,2011:
--- !u!1 &944233369840941083
GameObject:
  m_ObjectHideFlags: 0
  m_CorrespondingSourceObject: {fileID: 0}
  m_PrefabInstance: {fileID: 0}
  m_PrefabAsset: {fileID: 0}
  serializedVersion: 6
  m_Component:
  - component: {fileID: 8008104757791028361}
  m_Layer: 0
  m_Name: House 1
  m_TagString: Untagged
  m_Icon: {fileID: 0}
  m_NavMeshLayer: 0
  m_StaticEditorFlags: 0
  m_IsActive: 1
--- !u!4 &8008104757791028361
Transform:
  m_ObjectHideFlags: 0
  m_CorrespondingSourceObject: {fileID: 0}
  m_PrefabInstance: {fileID: 0}
  m_PrefabAsset: {fileID: 0}
  m_GameObject: {fileID: 944233369840941083}
  m_LocalRotation: {x: 0, y: 0, z: 0, w: 1}
  m_LocalPosition: {x: 0, y: 0, z: 0}
  m_LocalScale: {x: 1, y: 1, z: 1}
  m_Children:
  - {fileID: 3319719975712016994}
  m_Father: {fileID: 0}
  m_RootOrder: 0
  m_LocalEulerAnglesHint: {x: 0, y: 0, z: 0}
--- !u!1001 &1281158660440614795
PrefabInstance:
  m_ObjectHideFlags: 0
  serializedVersion: 2
  m_Modification:
    m_TransformParent: {fileID: 8008104757791028361}
    m_Modifications:
    - target: {fileID: 3791542795976537939, guid: 278d5430b210e40d0a4769081923e244,
        type: 3}
      propertyPath: m_Name
      value: house
      objectReference: {fileID: 0}
    - target: {fileID: 4599746117699055081, guid: 278d5430b210e40d0a4769081923e244,
        type: 3}
      propertyPath: m_RootOrder
      value: 0
      objectReference: {fileID: 0}
    - target: {fileID: 4599746117699055081, guid: 278d5430b210e40d0a4769081923e244,
        type: 3}
      propertyPath: m_LocalPosition.x
      value: 0
      objectReference: {fileID: 0}
    - target: {fileID: 4599746117699055081, guid: 278d5430b210e40d0a4769081923e244,
        type: 3}
      propertyPath: m_LocalPosition.y
      value: 0
      objectReference: {fileID: 0}
    - target: {fileID: 4599746117699055081, guid: 278d5430b210e40d0a4769081923e244,
        type: 3}
      propertyPath: m_LocalPosition.z
      value: 0
      objectReference: {fileID: 0}
    - target: {fileID: 4599746117699055081, guid: 278d5430b210e40d0a4769081923e244,
        type: 3}
      propertyPath: m_LocalRotation.w
      value: 0.7071068
      objectReference: {fileID: 0}
    - target: {fileID: 4599746117699055081, guid: 278d5430b210e40d0a4769081923e244,
        type: 3}
      propertyPath: m_LocalRotation.x
      value: -0.7071068
      objectReference: {fileID: 0}
    - target: {fileID: 4599746117699055081, guid: 278d5430b210e40d0a4769081923e244,
        type: 3}
      propertyPath: m_LocalRotation.y
      value: -0
      objectReference: {fileID: 0}
    - target: {fileID: 4599746117699055081, guid: 278d5430b210e40d0a4769081923e244,
        type: 3}
      propertyPath: m_LocalRotation.z
      value: -0
      objectReference: {fileID: 0}
    - target: {fileID: 4599746117699055081, guid: 278d5430b210e40d0a4769081923e244,
        type: 3}
      propertyPath: m_LocalEulerAnglesHint.x
      value: -90
      objectReference: {fileID: 0}
    - target: {fileID: 4599746117699055081, guid: 278d5430b210e40d0a4769081923e244,
        type: 3}
      propertyPath: m_LocalEulerAnglesHint.y
      value: 0
      objectReference: {fileID: 0}
    - target: {fileID: 4599746117699055081, guid: 278d5430b210e40d0a4769081923e244,
        type: 3}
      propertyPath: m_LocalEulerAnglesHint.z
      value: 0
      objectReference: {fileID: 0}
    m_RemovedComponents: []
  m_SourcePrefab: {fileID: 100100000, guid: 278d5430b210e40d0a4769081923e244, type: 3}
--- !u!4 &3319719975712016994 stripped
Transform:
  m_CorrespondingSourceObject: {fileID: 4599746117699055081, guid: 278d5430b210e40d0a4769081923e244,
    type: 3}
  m_PrefabInstance: {fileID: 1281158660440614795}
  m_PrefabAsset: {fileID: 0}
