%YAML 1.1
%TAG !u! tag:unity3d.com,2011:
--- !u!1 &1294240617227147838
GameObject:
  m_ObjectHideFlags: 0
  m_CorrespondingSourceObject: {fileID: 0}
  m_PrefabInstance: {fileID: 0}
  m_PrefabAsset: {fileID: 0}
  serializedVersion: 6
  m_Component:
  - component: {fileID: 1294240617227147822}
  - component: {fileID: -2764434382327232777}
  m_Layer: 0
  m_Name: WalnutHouse
  m_TagString: Untagged
  m_Icon: {fileID: 0}
  m_NavMeshLayer: 0
  m_StaticEditorFlags: 0
  m_IsActive: 1
--- !u!4 &1294240617227147822
Transform:
  m_ObjectHideFlags: 0
  m_CorrespondingSourceObject: {fileID: 0}
  m_PrefabInstance: {fileID: 0}
  m_PrefabAsset: {fileID: 0}
  m_GameObject: {fileID: 1294240617227147838}
  m_LocalRotation: {x: 0, y: 0, z: 0, w: 1}
  m_LocalPosition: {x: 0, y: 0, z: 0}
  m_LocalScale: {x: 1, y: 1, z: 1}
  m_Children:
  - {fileID: 4603825890074398838}
  m_Father: {fileID: 0}
  m_RootOrder: 0
  m_LocalEulerAnglesHint: {x: 0, y: 0, z: 0}
--- !u!65 &-2764434382327232777
BoxCollider:
  m_ObjectHideFlags: 0
  m_CorrespondingSourceObject: {fileID: 0}
  m_PrefabInstance: {fileID: 0}
  m_PrefabAsset: {fileID: 0}
  m_GameObject: {fileID: 1294240617227147838}
  m_Material: {fileID: 0}
  m_IsTrigger: 1
  m_Enabled: 1
  serializedVersion: 2
  m_Size: {x: 0.2, y: 0.1, z: 0.2}
  m_Center: {x: 0, y: 0.05, z: 0}
--- !u!1001 &13941775157607839
PrefabInstance:
  m_ObjectHideFlags: 0
  serializedVersion: 2
  m_Modification:
    m_TransformParent: {fileID: 1294240617227147822}
    m_Modifications:
    - target: {fileID: 3431382712558081670, guid: 278d5430b210e40d0a4769081923e244,
        type: 3}
      propertyPath: m_Materials.Array.data[0]
      value: 
      objectReference: {fileID: 2100000, guid: d2cd5fc31b3984d18ab2434d277bbca7, type: 2}
    - target: {fileID: 3791542795976537939, guid: 278d5430b210e40d0a4769081923e244,
        type: 3}
      propertyPath: m_Name
      value: house
      objectReference: {fileID: 0}
    - target: {fileID: 4599746117699055081, guid: 278d5430b210e40d0a4769081923e244,
        type: 3}
      propertyPath: m_RootOrder
      value: 0
      objectReference: {fileID: 0}
    - target: {fileID: 4599746117699055081, guid: 278d5430b210e40d0a4769081923e244,
        type: 3}
      propertyPath: m_LocalPosition.x
      value: 0
      objectReference: {fileID: 0}
    - target: {fileID: 4599746117699055081, guid: 278d5430b210e40d0a4769081923e244,
        type: 3}
      propertyPath: m_LocalPosition.y
      value: 0
      objectReference: {fileID: 0}
    - target: {fileID: 4599746117699055081, guid: 278d5430b210e40d0a4769081923e244,
        type: 3}
      propertyPath: m_LocalPosition.z
      value: 0
      objectReference: {fileID: 0}
    - target: {fileID: 4599746117699055081, guid: 278d5430b210e40d0a4769081923e244,
        type: 3}
      propertyPath: m_LocalRotation.w
      value: 0.7071068
      objectReference: {fileID: 0}
    - target: {fileID: 4599746117699055081, guid: 278d5430b210e40d0a4769081923e244,
        type: 3}
      propertyPath: m_LocalRotation.x
      value: -0.7071068
      objectReference: {fileID: 0}
    - target: {fileID: 4599746117699055081, guid: 278d5430b210e40d0a4769081923e244,
        type: 3}
      propertyPath: m_LocalRotation.y
      value: -0
      objectReference: {fileID: 0}
    - target: {fileID: 4599746117699055081, guid: 278d5430b210e40d0a4769081923e244,
        type: 3}
      propertyPath: m_LocalRotation.z
      value: -0
      objectReference: {fileID: 0}
    - target: {fileID: 4599746117699055081, guid: 278d5430b210e40d0a4769081923e244,
        type: 3}
      propertyPath: m_LocalEulerAnglesHint.x
      value: -90
      objectReference: {fileID: 0}
    - target: {fileID: 4599746117699055081, guid: 278d5430b210e40d0a4769081923e244,
        type: 3}
      propertyPath: m_LocalEulerAnglesHint.y
      value: 0
      objectReference: {fileID: 0}
    - target: {fileID: 4599746117699055081, guid: 278d5430b210e40d0a4769081923e244,
        type: 3}
      propertyPath: m_LocalEulerAnglesHint.z
      value: 0
      objectReference: {fileID: 0}
    m_RemovedComponents: []
  m_SourcePrefab: {fileID: 100100000, guid: 278d5430b210e40d0a4769081923e244, type: 3}
--- !u!4 &4603825890074398838 stripped
Transform:
  m_CorrespondingSourceObject: {fileID: 4599746117699055081, guid: 278d5430b210e40d0a4769081923e244,
    type: 3}
  m_PrefabInstance: {fileID: 13941775157607839}
  m_PrefabAsset: {fileID: 0}
